Assignment 5
…
  pivot_wider(names_from = time,
              values_from = lean.legs) %>% 
  mutate(lbmleg.change =post-pre,
         pre.mc =pre - mean(pre)) %>% 
  mutate(pros.change =((post-pre) /pre) *100) %>% 
  filter(!is.na(lbmleg.change)) %>% 
  
  print()

## # A tibble: 68 × 10
##    participant sex    include sets     leg     pre  post lbmle…¹  pre.mc pros.…²
##    <chr>       <chr>  <chr>   <chr>    <chr> <dbl> <dbl>   <dbl>   <dbl>   <dbl>
##  1 FP28        female incl    multiple L      7059  7273     214 -1537.   3.03  
##  2 FP28        female incl    single   R      7104  7227     123 -1492.   1.73  
##  3 FP40        female incl    single   L      7190  7192       2 -1406.   0.0278
##  4 FP40        female incl    multiple R      7506  7437     -69 -1090.  -0.919 
##  5 FP21        male   incl    single   L     10281 10470     189  1685.   1.84  
##  6 FP21        male   incl    multiple R     10200 10819     619  1604.   6.07  
##  7 FP34        female incl    single   L      6014  6326     312 -2582.   5.19  
##  8 FP34        female incl    multiple R      6009  6405     396 -2587.   6.59  
##  9 FP23        male   incl    single   L      8242  8687     445  -354.   5.40  
## 10 FP23        male   incl    multiple R      8685  8480    -205    88.7 -2.36  
## # … with 58 more rows, and abbreviated variable names ¹​lbmleg.change,
## #   ²​pros.change
…
strength <- strengthvolume %>%
  group_by(exercise) %>%
  mutate(scaled.load = load / max(load, na.rm = TRUE)) %>%
  group_by(participant, time, sex, sets) %>%
  summarise(combined.load = mean(scaled.load, na.rm = TRUE)) %>%
  ungroup() %>%
  pivot_wider(names_from = time,
              values_from = combined.load) %>%
  mutate(pros.change= ((post - pre) / pre) * 100) %>%
  print()

## `summarise()` has grouped output by 'participant', 'time', 'sex'. You can
## override using the `.groups` argument.

## # A tibble: 78 × 10
##    participant sex    sets      post   pre session1 week2 week5 week9 pros.cha…¹
##    <chr>       <chr>  <chr>    <dbl> <dbl>    <dbl> <dbl> <dbl> <dbl>      <dbl>
##  1 FP1         male   multiple 0.696 0.560    0.541 0.572 0.626 0.715       24.2
##  2 FP1         male   single   0.687 0.603    0.628 0.674 0.693 0.722       14.0
##  3 FP11        male   multiple 0.776 0.604    0.594 0.711 0.772 0.737       28.3
##  4 FP11        male   single   0.708 0.568    0.570 0.637 0.693 0.644       24.6
##  5 FP12        female multiple 0.757 0.601    0.627 0.652 0.637 0.715       25.9
##  6 FP12        female single   0.729 0.559    0.600 0.634 0.597 0.680       30.5
##  7 FP13        male   multiple 0.732 0.512    0.528 0.600 0.660 0.698       42.9
##  8 FP13        male   single   0.757 0.531    0.541 0.597 0.673 0.711       42.6
##  9 FP14        female multiple 0.518 0.364    0.324 0.440 0.448 0.511       42.5
## 10 FP14        female single   0.490 0.395    0.382 0.431 0.445 0.470       24.0
## # … with 68 more rows, and abbreviated variable name ¹​pros.change
…
